{
    "header": "设置",
    "content": "<p>设置内容将实时生效，主程序版本Ver1.0.1.2，数据版本5.15ADS</p><button class=\"modal-close waves-effect waves-green btn-flat\"  onclick=\"clean()\">清除全部信息</button><button  class=\"modal-close waves-effect waves-green btn-flat\" onclick='meowout()'>导出数据</button><button  class=\"modal-close waves-effect waves-green btn-flat\" onclick='modal(\"meowin\")'>导入数据</button>",
    "footer": "<a  class=\"modal-close waves-effect waves-green btn-flat\" href=\"#!\">关闭</a>"
  }